

 ________  __    __                                      __
/        |/  |  /  |                                    /  |
$$$$$$$$/ $$ |  $$ |  ______    ______    ______    ____$$ |
   $$ |   $$ |  $$ | /      \  /      \  /      \  /    $$ |
   $$ |   $$ |  $$ |/$$$$$$  |/$$$$$$  |/$$$$$$  |/$$$$$$$ |
   $$ |   $$ |  $$ |$$ |  $$ |$$ |  $$ |$$ |  $$ |$$ |  $$ |
   $$ |   $$ \__$$ |$$ \__$$ |$$ \__$$ |$$ \__$$ |$$ \__$$ |
   $$ |   $$    $$/ $$    $$ |$$    $$/ $$    $$/ $$    $$ |
   $$/     $$$$$$/   $$$$$$$ | $$$$$$/   $$$$$$/   $$$$$$$/
                    /  \__$$ |
 __    __           $$    $$/             ______                                  __
/  |  /  |           $$$$$$/             /      \                                /  |
$$ |  $$ |  _______   ______    ______  /$$$$$$  |  ______    ______   __     __ $$/   _______   ______
$$ |  $$ | /       | /      \  /      \ $$ \__$$/  /      \  /      \ /  \   /  |/  | /       | /      \
$$ |  $$ |/$$$$$$$/ /$$$$$$  |/$$$$$$  |$$      \ /$$$$$$  |/$$$$$$  |$$  \ /$$/ $$ |/$$$$$$$/ /$$$$$$  |
$$ |  $$ |$$      \ $$    $$ |$$ |  $$/  $$$$$$  |$$    $$ |$$ |  $$/  $$  /$$/  $$ |$$ |      $$    $$ |
$$ \__$$ | $$$$$$  |$$$$$$$$/ $$ |      /  \__$$ |$$$$$$$$/ $$ |        $$ $$/   $$ |$$ \_____ $$$$$$$$/
$$    $$/ /     $$/ $$       |$$ |      $$    $$/ $$       |$$ |         $$$/    $$ |$$       |$$       |
 $$$$$$/  $$$$$$$/   $$$$$$$/ $$/        $$$$$$/   $$$$$$$/ $$/           $/     $$/  $$$$$$$/  $$$$$$$/




