<svg height="682.667" version="1" viewBox="0 0 512.000000 512.000000" width="682.667"
     xmlns="http://www.w3.org/2000/svg">
  <path
    d="M164 1C113.7 8 72.4 33.1 44.9 73.2c-16.8 24.6-25.3 50-31.8 95.3-4.9 33.9-6.6 83.8-4 116.6 4.1 52.4 15.9 105.8 29.1 132.3 21.6 43.1 62.1 75.8 108.6 87.5 22.6 5.8 52.4 6.6 73.7 2.1 8.2-1.8 37.1-10.4 38.3-11.5.2-.2-1-3.2-2.7-6.7-3.8-7.7-4.9-15.6-4-27.3 2.3-27.6 21.3-58.4 55.2-89.6 12.1-11.1 32.1-28.1 41.3-35.1 4.7-3.5 5.2-4.3 5.8-9.1.4-2.8 1-6.3 1.3-7.7.5-1.9-.7-1.1-5.8 4-12.9 13-28.9 17.8-45.4 13.5-18.6-4.9-33-21.5-37-42.8-3.3-17.6-1.4-36 6.1-58.6 8.6-25.8 17.2-39.9 36.2-58.9 6.1-6.3 11.2-11.5 11.2-11.8 0-.2-1.7-1.2-3.8-2.3-2.4-1.2-9.5-2.8-18.3-4-21.3-2.9-27.1-5.3-36.6-15-5.7-5.8-10.4-14-12.8-22.6-1.4-4.7-1.6-8.1-1.2-16 1.1-18.7 6-29.2 17.6-37.3 7.4-5.2 9.8-6.2 33.1-13.7 16.6-5.3 27.8-10.1 26.4-11.4-.5-.5-8-4.1-16.7-8-32.3-14.5-72.8-28-98.2-32.8C200.9.6 173.1-.2 164 1zm66 110v28h-55l-.2 100.2-.3 100.3h-66l-.3-100.3L108 139H53V83h177v28z"/>
  <path
    d="M361.4 65.1c-1.8 3-13.6 9.2-22.8 12-39.8 12-49.3 16.9-51.2 26.6-.8 3.9 2.5 11.6 6.8 16 5.3 5.5 11.4 7.4 27.1 8.4 26.9 1.8 42.8 7.2 50.5 17.1 5.1 6.7 8.8 14.6 10.3 22.1l1.2 5.7 3.6-.7c2-.4 7.7-.7 12.6-.7 10.8-.1 14.9 1.6 17.2 7.2 2 4.9 1.8 7.2-7.2 63.2-4.1 25.6-7.8 48.2-8.1 50.2-.3 2.1-.3 3.8.1 3.8s7.4-5 15.6-11c22.2-16.5 43.8-30.9 47.4-31.6 4.7-.9 8.9 1.7 10.9 6.6 3.2 8 1.4 21.4-3.7 26.8-1.2 1.3-11 8.3-21.7 15.6-10.7 7.3-27.9 19-38.2 26-13 8.8-18.9 13.4-19.2 14.9-.3 1.2-1.7 8-3.1 15.2-4 20.2-11 46.3-17.3 65.2-3.2 9.5-5.5 17.3-5 17.3 2.5 0 37.1-25.4 54.3-39.9 16.3-13.7 35.8-32.4 43.5-41.5 53.8-64.2 53.2-154.7-1.3-218.4-15.4-18-54.4-49.1-88.5-70.4-11-6.9-12.6-7.6-13.8-5.7z"/>
  <path
    d="M362.1 194.6c-8.2 2.2-14.9 6.2-22.2 13.4-16.3 16-25.6 38.4-26.6 64.5-.5 12.8-.4 13.1 2.4 18.5 4.4 8.6 13.3 12.1 21.8 8.6 7.1-3 15.8-15.4 19.8-28.1 1.5-4.9 14.7-73.8 14.7-76.9 0-2-2.7-2-9.9 0zM332.2 388.6c-25.1 23.5-40.4 46.8-43.4 66.1-1.2 7.9.9 16.2 4.7 18.7 14.3 9.4 32.8-20.5 46.5-75.6 2.3-9 4.3-16.9 4.5-17.6 1.1-3.1-2.9-.4-12.3 8.4z"/>
</svg>
